CalculationMode =  gs

PseudopotentialSet = hgh_lda_sc

dist = 4.0

%Coordinates
 'Cu' | 0.0 | 0.0 | -dist/2
 'Cu' | 0.0 | 0.0 |  dist/2
%

Spacing = 0.4
Radius = 6.0

ExtraStates = 2

Smearing = 0.1 * eV
SmearingFunction = fermi_dirac

%StaticMagneticField
 10.0 | 0.0 | 0.0
%

Output = current
OutputFormat = axis_z
